{
    "layer": "top",
    "position": "top",
    "output": "DP-2",
    "mod": "dock",
    "exclusive": true,
    "passthrough": false,
    "gtk-layer-shell": true,
    "margin-left": 10,
    "margin-right": 10,
    // "margin-bottom": 10,
    "margin-top": 10,
    "modules-left": [
        "river/tags",
        "river/mode",
        "river/window"
    ],
    "modules-center": [],
    "modules-right": [
        // "image#album-art",
        // "custom/spotify",
        // "wireplumber",
        // "disk#root",
        // "disk#media",
        "memory",
        "cpu",
        // "bluetooth",
        // "custom/updates",
        "clock",
        "tray"
    ],
    "clock": {
        "format": "<span color=\"#94e2d5\">  {:%A, %F %R}</span>",
        "tooltip": true,
        "tooltip-format": "{:%A, %B %d, %Y (%R)}"
    },
    "cpu": {
        "format": "<span color=\"#89b4fa\">  {usage}%</span>",
        "interval": 5
    },
    "memory": {
        "format": "<span color=\"#a6e3a1\">  {percentage}%</span>",
        "interval": 5,
        "max-length": 30
    },
    "pulseaudio": {
        "format": "<span color=\"#cba6f7\">  {volume}%</span>",
        "tooltip": false,
        "format-muted": "<span color=\"#f7768e\">󰖁 Muted</span>",
        "on-click": "pamixer -t",
        "on-scroll-up": "pamixer -i 5",
        "on-scroll-down": "pamixer -d 5",
        "scroll-step": 5,
        "format-icons": {
            "headphone": "",
            "hands-free": "",
            "headset": "",
            "phone": "",
            "portable": "",
            "car": "",
            "default": [
                "",
                "",
                ""
            ]
        }
    },
    "river/tags": {
        "tag-labels": [
            "",
            "",
            "",
            "",
            "",
            "",
            "",
            "",
            ""
        ]
    },
    "river/mode": {},
    "river/layout": {},
    "river/window": {},
    "hyprland/workspaces": {
        "disable-scroll": true,
        "all-outputs": true,
        "active-only": false,
        "format": "{icon}",
        "on-click": "activate",
        "on-scroll-up": "hyprctl dispatch workspace e+1",
        "on-scroll-down": "hyprctl dispatch workspace e-1",
        "format-icons": {
            "1": " ",
            "2": " ",
            "3": " ",
            "4": " ",
            "5": " ",
            "6": " ",
            "7": " ",
            "8": " ",
            "9": " ",
            "urgent": "",
            "default": "",
        }
    },
    "custom/spotify": {
        "exec": "/usr/bin/python3 ~/.config/waybar/custom/mediaplayer.py",
        "format": "<span color=\"#a6e3a1\">  {}</span>",
        "return-type": "json",
        "on-click": "playerctl play-pause",
        "on-click-right": "spotify",
        "on-scroll-up": "playerctl previous",
        "on-scroll-down": "playerctl next"
    },
    "custom/updates": {
        "format": "<span color=\"#a6e3a1\">{icon} {}</span>",
        "return-type": "json",
        "format-icons": {
            "has-updates": " ",
            "updated": " "
        },
        "exec": "/usr/bin/env bash ~/.config/waybar/custom/updates-xbps.sh",
        "restart-interval": 3600
    },
    "disk#root": {
        "format": "<span color=\"#F9E2AF\"> /: {used}/{total}</span>",
        "on-click": "thunar",
        "path": "/",
        "tooltip-format": "{percentage_used}% used"
    },
    "disk#media": {
        "format": "<span color=\"#F9E2AF\"> /media/users: {used}/{total}</span>",
        "on-click": "thunar",
        "path": "/media/users",
        "tooltip-format": "{percentage_used}% used"
    },
    "wireplumber": {
        "format": "<span color=\"#cba6f7\">  {volume}%</span>",
        "format-muted": "<span color=\"#cba6f7\">muted</span>",
        "scroll-step": 2.0,
        "on-click": "pamixer -t",
        "on-click-middle": "helvum"
    },
    "image#album-art": {
        "exec": "~/.config/waybar/custom/album_art.sh",
        "size": 32,
        "interval": 30
    },
}
